%YAML 1.1
%TAG !u! tag:unity3d.com,2011:
--- !u!114 &11400000
MonoBehaviour:
  m_ObjectHideFlags: 0
  m_CorrespondingSourceObject: {fileID: 0}
  m_PrefabInstance: {fileID: 0}
  m_PrefabAsset: {fileID: 0}
  m_GameObject: {fileID: 0}
  m_Enabled: 1
  m_EditorHideFlags: 0
  m_Script: {fileID: 11500000, guid: d2f2ac98dc32b1f4db96d36eed5229dd, type: 3}
  m_Name: 03_researchers
  m_EditorClassIdentifier: 
  active: 0
  logfile: 3
  decryphed: 1
  menu: Missing Researchers
  headline: Missing Researchers
  day: 
  description: "Dr. Avory and Dr. McCarter were sent to the island beforehand. They
    were chosen because of their expertise in runeology and geology which they studied
    in addition to the mandatory exploration knowledge and toolkit each researcher
    has to complete. Both are highly compassionate and competent and are two of the
    best researchers in their chosen subjects. They were given different main tasks
    with the hope to speed up the research process, though the main goal stayed the
    same for both - to find some clues why the continents and islands are dropping.
    Though we were sent some early reports the contact was lost some days after their
    arrival on the island.\r\nWe sent you some additional information to Dr. Avory
    and Dr. McCarter for you to check. Maybe it can help you find clues about their
    whereabouts faster.\r\n\nYours sincerely,\r\nRobert C. Daniel\r\nRepresentative
    of the Council of the Air-F2 Project\r"
  menuCorr: 
  headlinCorr: 
  dayCorr: 
  descriptionCorr: 
  imgExists: 0
  img: {fileID: 0}
  audioExists: 0
  audio: {fileID: 0}
  audioCorr: {fileID: 0}
  logFile: 0
  category: general
  activateOn: 1
