%YAML 1.1
%TAG !u! tag:unity3d.com,2011:
--- !u!21 &2100000
Material:
  serializedVersion: 6
  m_ObjectHideFlags: 0
  m_CorrespondingSourceObject: {fileID: 0}
  m_PrefabInstance: {fileID: 0}
  m_PrefabAsset: {fileID: 0}
  m_Name: mat_finished_03
  m_Shader: {fileID: -6465566751694194690, guid: a0ee127d45c4dd448acb4adaf7b6c7cc, type: 3}
  m_ShaderKeywords: 
  m_LightmapFlags: 4
  m_EnableInstancingVariants: 0
  m_DoubleSidedGI: 0
  m_CustomRenderQueue: -1
  stringTagMap: {}
  disabledShaderPasses: []
  m_SavedProperties:
    serializedVersion: 3
    m_TexEnvs:
    - Texture2D_1AE08EB6:
        m_Texture: {fileID: 2800000, guid: 58b72a440438ad445b4aa64b0aa3672e, type: 3}
        m_Scale: {x: 1, y: 1}
        m_Offset: {x: 0, y: 0}
    - Texture2D_F8ABBF9E:
        m_Texture: {fileID: 2800000, guid: dc007c064b585274db30a8d8664feaaa, type: 3}
        m_Scale: {x: 1, y: 1}
        m_Offset: {x: 0, y: 0}
    m_Floats: []
    m_Colors:
    - Color_9853E45A: {r: 0.8784314, g: 1.6941177, b: 11.984314, a: 1}
  m_BuildTextureStacks: []
