%YAML 1.1
%TAG !u! tag:unity3d.com,2011:
--- !u!114 &11400000
MonoBehaviour:
  m_ObjectHideFlags: 0
  m_CorrespondingSourceObject: {fileID: 0}
  m_PrefabInstance: {fileID: 0}
  m_PrefabAsset: {fileID: 0}
  m_GameObject: {fileID: 0}
  m_Enabled: 1
  m_EditorHideFlags: 0
  m_Script: {fileID: 11500000, guid: 35f3c4135147d8443a3dbd9ba95f97db, type: 3}
  m_Name: 02_campside
  m_EditorClassIdentifier: 
  active: 1
  menue: Campside
  headline: Researchers Campside
  description: "After exploring the area surrounding the dropped off point, I discovered
    an abandoned camp side. I think it has been deserted for several days. Inside
    one of the tents I found a hand drawn sketch of what might be a floor plan of
    some ruins. Dr. Avory left a short note with some coordinates on it. Hopefully
    my collogues are well and have just relocated their camp to another location\u2026"
  update1Exists: 0
  update1Active: 0
  update1: 
  update2Exists: 0
  update2Active: 0
  update2: 
