%YAML 1.1
%TAG !u! tag:unity3d.com,2011:
--- !u!114 &11400000
MonoBehaviour:
  m_ObjectHideFlags: 0
  m_CorrespondingSourceObject: {fileID: 0}
  m_PrefabInstance: {fileID: 0}
  m_PrefabAsset: {fileID: 0}
  m_GameObject: {fileID: 0}
  m_Enabled: 1
  m_EditorHideFlags: 0
  m_Script: {fileID: 11500000, guid: 35f3c4135147d8443a3dbd9ba95f97db, type: 3}
  m_Name: 10_drMcCarter
  m_EditorClassIdentifier: 
  active: 0
  menue: Dr. McCarter
  headline: Remains of Dr. McCarter
  description: "Inside the labyrinth I found Dr. McCarters dead body leaning against
    a wall. The analysis through my PEA told me that she died due to heavy poison.
    I guess both Dr. Avory and Dr. McCarter were already dead when I landed on the
    island. I have to be careful from now on! Who knows what other dangers the island
    holds.\r\nI couldn\u2019t take Dr. McCarter\u2019s body out of the labyrinth...
    Before I left I took the memory card of her PEA. With both of them dead I have
    an obligation to finish this expedition successfully. I won\u2019t let their
    effort and deaths be in vain!\r"
  update1Exists: 0
  update1Active: 0
  update1: 
  update2Exists: 0
  update2Active: 0
  update2: 
