%YAML 1.1
%TAG !u! tag:unity3d.com,2011:
--- !u!114 &11400000
MonoBehaviour:
  m_ObjectHideFlags: 0
  m_CorrespondingSourceObject: {fileID: 0}
  m_PrefabInstance: {fileID: 0}
  m_PrefabAsset: {fileID: 0}
  m_GameObject: {fileID: 0}
  m_Enabled: 1
  m_EditorHideFlags: 0
  m_Script: {fileID: 11500000, guid: 35f3c4135147d8443a3dbd9ba95f97db, type: 3}
  m_Name: 12_outerIsland
  m_EditorClassIdentifier: 
  active: 0
  menue: Outer Island
  headline: The outer layer of the island
  description: Through the activation of the first crystal the mechanisms activated
    some kind of bridge. It should be possible for me now to reach the outer layer
    of the island.
  update1Exists: 0
  update1Active: 0
  update1: 
  update2Exists: 0
  update2Active: 0
  update2: 
