%YAML 1.1
%TAG !u! tag:unity3d.com,2011:
--- !u!114 &11400000
MonoBehaviour:
  m_ObjectHideFlags: 0
  m_CorrespondingSourceObject: {fileID: 0}
  m_PrefabInstance: {fileID: 0}
  m_PrefabAsset: {fileID: 0}
  m_GameObject: {fileID: 0}
  m_Enabled: 1
  m_EditorHideFlags: 0
  m_Script: {fileID: 11500000, guid: 35f3c4135147d8443a3dbd9ba95f97db, type: 3}
  m_Name: 13_energyLines
  m_EditorClassIdentifier: 
  active: 0
  menue: Energy Lines
  headline: Energy Lines
  description: "When I came back to the outer crystal of the laybrinth the crystal
    itself seemed to be charged and is light up in a strange and powerful blue. The
    cable, which connected the construct around the crystal with the temple now is
    filled with this strange blue too. It seems that some kind of energy is transferred
    between those cable lines the temple and the crystal.\r\nIf I remember correctly
    there were several markings around the temple leading in different directions.
    Maybe, now that the first crystal seems to be connected, on of the other lines
    will be accesible. \r"
  update1Exists: 1
  update1Active: 0
  update1: I followed some of the other lines and was able to access the outer layer
    of the island which opens up to a much bigger area. It seems that there are 4
    of those energy lines connected to the temple in total. Only the first one is
    transferring the blue energy (?) between the temple and the crystal, which leads
    me to believe that there me be some other mechanisms connected to the rest of
    them.
  update2Exists: 0
  update2Active: 0
  update2: 
