%YAML 1.1
%TAG !u! tag:unity3d.com,2011:
--- !u!114 &11400000
MonoBehaviour:
  m_ObjectHideFlags: 0
  m_CorrespondingSourceObject: {fileID: 0}
  m_PrefabInstance: {fileID: 0}
  m_PrefabAsset: {fileID: 0}
  m_GameObject: {fileID: 0}
  m_Enabled: 1
  m_EditorHideFlags: 0
  m_Script: {fileID: 11500000, guid: ef10665206340ef4abef84478f51f06f, type: 3}
  m_Name: SFX Random Rock Fall 2
  m_EditorClassIdentifier: 
  m_requirements: 0
  m_valuesMix: 0
  m_values:
  - m_name: Time of Day
    m_min: 0.8
    m_max: 1
    m_minFalloff: 0.1
    m_maxFalloff: 0.1
    m_invert: 0
  m_eventsMix: 0
  m_events: []
  m_clipData:
  - m_clip: {fileID: 8300000, guid: f176c12d372cd1747ad91bf093eb60e6, type: 3}
    m_volume: 1
  - m_clip: {fileID: 8300000, guid: a9ac8698435febc489e79de35fa5edf1, type: 3}
    m_volume: 1
  - m_clip: {fileID: 8300000, guid: addc03787500a0343b447ed90dfe27ac, type: 3}
    m_volume: 1
  m_clips: []
  m_volume: 0.75
  m_playbackSpeed: 1
  m_randomizeOrder: 1
  m_crossFade: 0
  m_trackFadeTime: 2.5
  m_volumeFadeTime: 1
  m_playbackSpeedFadeTime: 1
  m_delayChance: 100
  m_delayFadeTime: 0
  m_minMaxDelay: {x: 5, y: 10}
  m_randomVolume: 1
  m_minMaxVolume: {x: 1.8, y: 2}
  m_randomPlaybackSpeed: 0
  m_minMaxPlaybackSpeed: {x: 0, y: 1}
  m_modifiers: []
  m_outputType: 2
  m_outputPrefab: {fileID: 1298190303267636, guid: 49d83de6564f71d4698689bbf8ed2669, type: 3}
  m_outputDirect: 0
  m_outputDistance: {x: 10, y: 15}
  m_outputVerticalAngle: {x: 0, y: 180}
  m_outputHorizontalAngle: {x: -180, y: 180}
  m_outputFollowPosition: 0
  m_outputFollowRotation: 0
  m_syncGroup: 
  m_syncType: 0
  m_eventsWhilePlaying: []
  m_valuesWhilePlaying: []
  m_OnPlayClip:
    m_PersistentCalls:
      m_Calls: []
  m_OnStopClip:
    m_PersistentCalls:
      m_Calls: []
