# This file uses centimeters as units for non-parametric coordinates.

v 0.500000 1.081167 -1.700000
v -0.500000 1.081167 1.700000
v 0.500000 1.081167 1.700000
v -0.500000 1.081167 -1.700000
v 0.500000 1.068396 0.000000
v -0.500000 1.073598 0.000000
v -0.500000 1.081167 0.850000
v 0.500000 1.081167 0.850000
v 0.500000 1.081167 -0.850000
v -0.500000 1.081167 -0.850000
v 0.500000 1.076629 0.425000
v -0.500000 1.072931 0.425000
v -0.500000 1.074828 -0.425000
v 0.500000 1.070554 -0.425000
v -0.946409 0.541050 0.850000
v -0.925964 0.541050 2.077716
v 0.859842 0.541050 -2.077716
v -0.925964 0.541050 -2.077716
v 0.859842 0.541050 2.077716
v 0.880287 0.541050 -0.850000
v -0.943581 0.541050 -0.425000
v -0.935108 0.541050 0.000000
v 0.872613 0.541050 0.425000
v 0.878188 0.541050 0.000000
v -0.935210 0.541050 0.425000
v 0.880287 0.541050 0.850000
v 0.879259 0.541050 -0.425000
v -0.946409 0.541050 -0.850000
v -0.500000 -0.007930 0.850000
v -0.500000 -0.007930 1.700000
v 0.500000 -0.007930 -1.700000
v -0.500000 -0.007930 -1.700000
v 0.879259 -0.007930 -0.425000
v 0.500000 -0.007930 -0.425000
v 0.500000 -0.007930 -0.850000
v 0.880287 -0.007930 -0.850000
v 0.500000 -0.007930 1.700000
v -0.500000 -0.007930 -0.425000
v -0.500000 -0.007930 0.000000
v 0.500000 -0.007930 0.425000
v 0.500000 -0.007930 0.000000
v 0.872613 -0.007930 0.425000
v -0.500000 -0.007930 0.425000
v 0.500000 -0.007930 0.850000
v 0.878188 -0.007930 0.000000
v 0.859842 -0.007930 -2.077716
v -0.500000 -0.007930 -0.850000
v -0.925964 -0.007930 -2.077716
v -0.946409 -0.007930 0.850000
v -0.925964 -0.007930 2.077716
v 0.859842 -0.007930 2.077716
v -0.943581 -0.007930 -0.425000
v -0.935108 -0.007930 0.000000
v -0.935210 -0.007930 0.425000
v 0.880287 -0.007930 0.850000
v -0.946409 -0.007930 -0.850000
v -1.271631 -0.007930 -2.605839
v -1.361538 -0.007930 -0.862801
v -1.358515 -0.007930 -0.390945
v 1.238321 -0.007930 -2.605839
v 1.302323 -0.007930 -0.868231
v -1.350144 -0.007930 0.025219
v -1.271631 -0.007930 2.567282
v 1.238321 -0.007930 2.567282
v 1.320578 -0.007930 0.418683
v 1.303971 -0.007930 0.848207
v -1.361540 -0.007930 0.837628
v -1.350144 -0.007930 0.390994
v 1.327223 -0.007930 -0.418665
v 1.326082 -0.007930 0.020041
v -0.500000 1.081167 1.275000
v 0.500000 1.081167 1.275000
v -0.936187 0.541050 1.463858
v 0.870065 0.541050 1.463858
v -0.500000 -0.007930 1.275000
v 0.500000 -0.007930 1.275000
v -0.936187 -0.007930 1.463858
v 0.870065 -0.007930 1.463858
v -1.316585 -0.007930 1.702455
v 1.299902 -0.007930 1.707744
v 0.500000 1.081167 -1.275000
v -0.500000 1.081167 -1.275000
v 0.870065 0.541050 -1.463858
v -0.936187 0.541050 -1.463858
v 0.500000 -0.007930 -1.275000
v -0.500000 -0.007930 -1.275000
v 0.870065 -0.007930 -1.463858
v -0.936187 -0.007930 -1.463858
v 1.283258 -0.007930 -1.737035
v -1.336499 -0.007930 -1.723006
v 0.000000 1.782809 0.000000
v 0.000000 1.948795 0.513323
v 0.000000 1.948795 -0.513323
v 0.000000 1.081167 -1.700000
v 0.000000 1.081167 1.700000
v -0.033061 0.541050 -2.077716
v -0.033061 0.541050 2.077716
v 0.000000 -0.007930 -1.700000
v 0.000000 -0.007930 1.700000
v 0.000000 -0.007930 0.000000
v 0.000000 -0.007930 0.850000
v -0.000000 -0.007930 -0.850000
v 0.000000 -0.007930 0.425000
v 0.000000 -0.007930 -0.425000
v -0.033061 -0.007930 -2.077716
v -0.033061 -0.007930 2.077716
v -0.016655 -0.007930 -2.560711
v -0.016655 -0.007930 2.567282
v 0.000000 -0.007930 1.275000
v 0.000000 2.411928 1.275000
v 0.000000 -0.007930 -1.275000
v 0.000000 2.411928 -1.275000
v -0.250000 1.081167 1.700000
v -0.479513 0.541050 -2.077716
v -0.250000 -0.007930 -1.700000
v -0.250000 -0.007930 0.000000
v -0.250000 -0.007930 0.850000
v -0.250000 -0.007930 -0.850000
v -0.250000 -0.007930 0.425000
v -0.250000 -0.007930 -0.425000
v -0.479513 -0.007930 -2.077716
v -0.644143 -0.007930 -2.605839
v -0.250000 -0.007930 1.275000
v -0.250000 -0.007930 -1.275000
v -0.250000 1.782809 0.000000
v -0.250000 1.948795 0.513323
v -0.250000 1.948795 -0.513323
v -0.250000 1.081167 -1.700000
v -0.479513 0.541050 2.077716
v -0.250000 -0.007930 1.700000
v -0.479513 -0.007930 2.077716
v -0.644143 -0.007930 2.567282
v -0.250000 2.411765 1.275000
v -0.250000 2.411765 -1.275000
v 0.253571 1.782809 0.000000
v 0.253571 1.948795 0.513323
v 0.253571 1.948795 -0.513323
v 0.253571 1.081167 -1.700000
v 0.419768 0.529612 2.077756
v 0.253571 -0.007930 1.700000
v 0.419768 -0.007930 2.077716
v 0.619797 -0.007930 2.567282
v 0.253571 2.419617 1.275000
v 0.253571 2.419617 -1.275000
v 0.253571 1.081167 1.700000
v 0.419768 0.541050 -2.077716
v 0.253571 -0.007930 -1.700000
v 0.253571 -0.007930 -0.000000
v 0.253571 -0.007930 0.850000
v 0.253571 -0.007930 -0.850000
v 0.253571 -0.007930 0.425000
v 0.253571 -0.007930 -0.425000
v 0.419768 -0.007930 -2.077716
v 0.619797 -0.007930 -2.571095
v 0.253571 -0.007930 1.275000
v 0.253571 -0.007930 -1.275000
v -0.442820 2.401131 1.652921
v -0.488989 2.349613 1.700000
v -0.500000 2.363953 1.274123
v -0.452025 2.411897 1.274385
v -0.250030 2.411910 1.652031
v -0.248433 2.363960 1.700000
v -0.500000 2.356642 -1.700000
v -0.452496 2.406409 -1.652481
v -0.452025 2.411897 -1.275007
v -0.500000 2.363953 -1.274554
v 0.500000 2.363969 1.700000
v 0.452041 2.411928 1.652041
v 0.500000 2.364700 1.276229
v 0.452794 2.413401 1.275000
v 0.500000 2.363969 -1.700000
v 0.452041 2.411928 -1.652041
v 0.253571 2.364397 -1.700000
v 0.253571 2.412788 -1.652476
v 0.500000 1.732405 0.000000
v 0.452041 1.782809 0.000000
v 0.500000 1.907775 -0.542345
v 0.452041 1.948795 -0.513323
v -0.500000 1.732405 0.000000
v -0.452041 1.782809 0.000000
v -0.452041 1.948795 0.513323
v -0.500000 1.907966 0.542935
v -0.500000 1.907966 -0.542935
v -0.452041 1.948795 -0.513323
v -0.450847 2.380379 0.827065
v -0.500000 2.365853 0.873469
v -0.450847 2.411928 0.889005
v 0.451979 2.394010 0.888256
v 0.500000 2.345701 0.873255
v 0.451564 2.361592 0.826757
v 0.500000 1.907775 0.542345
v 0.452041 1.948795 0.513323
v -0.250822 2.381142 0.827620
v -0.249984 2.411914 0.888062
v -0.451444 2.380762 -0.827343
v -0.450847 2.411928 -0.889005
v -0.500000 2.365853 -0.873469
v -0.249984 2.411914 -0.888062
v -0.250822 2.381142 -0.827620
v 0.451564 2.361592 -0.826757
v 0.500000 2.345678 -0.873267
v 0.451979 2.394010 -0.888256
v 0.500000 2.364699 -1.276229
v 0.452793 2.413401 -1.275000
v -1.313568 0.541050 0.837743
v -1.361540 0.493091 0.837628
v -1.302185 0.541050 0.391606
v -1.350144 0.493091 0.390994
v -0.898441 1.081167 0.850132
v -0.946401 1.033208 0.850464
v -0.890477 1.081167 1.444067
v -0.936187 1.031356 1.463858
v 0.875086 1.033454 0.850231
v 0.826878 1.081154 0.848736
v 0.845012 1.076624 0.424700
v 0.892046 1.027739 0.425741
v 0.880277 1.033206 -0.850598
v 0.832322 1.081163 -0.849810
v 0.825120 1.081167 -1.440921
v 0.870065 1.030707 -1.463858
v 1.278149 0.541050 0.017896
v 1.326082 0.493070 0.020041
v 1.279267 0.541050 -0.419343
v 1.327223 0.493089 -0.418665
v -0.946403 1.033209 -0.850356
v -0.898440 1.081167 -0.850024
v -0.889965 1.074828 -0.425000
v -0.938190 1.027135 -0.425000
v -1.343127 0.493975 -0.862801
v -1.294317 0.541050 -0.861275
v -1.310538 0.541050 -0.390558
v -1.358515 0.493091 -0.390964
v 0.831782 1.068415 0.000983
v 0.879649 1.020369 0.000365
v -0.936847 1.024902 0.425429
v -0.888972 1.072945 0.425712
v 1.272629 0.541050 0.417582
v 1.320578 0.493091 0.418683
v -0.885898 1.073598 0.000000
v -0.933918 1.025698 0.000000
v 0.876822 1.022723 -0.425718
v 0.828741 1.070555 -0.425027
v 0.859842 1.033208 -2.077716
v 0.812675 1.081167 -2.029757
v 0.399618 1.081167 -2.031922
v 0.419768 1.031136 -2.077716
v 0.859842 1.033208 2.077716
v 0.812675 1.081167 2.029757
v 0.825027 1.081167 1.440874
v 0.870065 1.030604 1.463858
v -0.925964 1.033208 -2.077716
v -0.878658 1.081167 -2.029757
v -0.888787 1.081167 -1.444036
v -0.934545 1.031453 -1.463858
v -0.925964 1.033208 2.077716
v -0.878775 1.081167 2.031070
v -0.453295 1.081167 2.045736
v -0.479513 1.029457 2.089117
v -1.302185 0.541050 0.024737
v -1.350144 0.493091 0.025219
v 1.279064 0.541050 -0.867159
v 1.325886 0.491977 -0.868158
v 1.245266 0.541050 -1.708889
v 1.287886 0.489578 -1.737035
v 1.306541 0.492949 0.848207
v 1.258686 0.541050 0.848409
v -1.271631 0.493091 -2.605839
v -1.225246 0.541050 -2.556443
v -1.259247 0.541050 -1.704125
v -1.303216 0.490578 -1.733280
v 1.238321 0.493091 -2.605839
v 1.193101 0.541050 -2.556904
v 0.601434 0.541050 -2.545376
v 0.619797 0.490378 -2.590657
v -1.294472 0.541050 1.699903
v -1.341199 0.491928 1.702330
v -1.271631 0.493091 2.567282
v -1.227410 0.541050 2.520368
v -0.644697 0.541050 2.533653
v -0.644136 0.492440 2.580978
v 1.238321 0.493091 2.567282
v 1.192412 0.541050 2.519323
v 1.233066 0.541050 1.682004
v 1.278082 0.491126 1.707744
v -0.249242 2.363960 -1.700000
v -0.250007 2.411910 -1.652032
v 0.000000 2.411928 -1.652041
v 0.000000 2.363969 -1.700000
v 0.000000 2.399688 0.887611
v -0.000650 2.368371 0.827444
v 0.253037 2.371099 0.827579
v 0.253571 2.402853 0.887516
v -0.016663 0.493705 2.554218
v -0.017223 0.541023 2.505599
v 0.620332 0.540449 2.519025
v 0.619790 0.492789 2.567282
v -0.016655 0.491982 -2.583648
v -0.018240 0.541050 -2.536804
v -0.644892 0.541050 -2.539557
v -0.644063 0.493932 -2.588340
v -0.033068 1.032267 2.097196
v -0.033735 1.081167 2.050174
v 0.418634 1.081167 2.029758
v 0.419746 1.033210 2.077720
v -0.033061 1.033117 -2.077716
v -0.028871 1.081167 -2.029848
v -0.452738 1.081167 -2.033652
v -0.479513 1.029606 -2.077716
v -0.000650 2.368371 -0.827444
v 0.000000 2.399688 -0.887611
v 0.253571 2.402853 -0.887516
v 0.253037 2.371099 -0.827579
v 0.000000 2.363969 1.700000
v 0.000000 2.411928 1.652041
v 0.253571 2.412788 1.652476
v 0.253571 2.364397 1.700000
vt 0.755980 0.830061
vt 0.756583 0.809862
vt 0.753078 0.919826
vt 0.754365 0.890663
vt 0.668629 0.868093
vt 0.667542 0.888279
vt 0.647827 0.887149
vt 0.648952 0.865936
vt 0.754555 0.870453
vt 0.755374 0.850260
vt 0.669340 0.827682
vt 0.669188 0.847894
vt 0.649429 0.848551
vt 0.649574 0.828759
vt 0.756898 0.780672
vt 0.757214 0.751482
vt 0.724022 0.910045
vt 0.735735 0.910367
vt 0.735180 0.930567
vt 0.723468 0.930245
vt 0.726241 0.829244
vt 0.737954 0.829566
vt 0.737399 0.849766
vt 0.725686 0.849445
vt 0.725132 0.869645
vt 0.736844 0.869966
vt 0.736290 0.890167
vt 0.724577 0.889845
vt 0.727350 0.788844
vt 0.739063 0.789166
vt 0.738508 0.809366
vt 0.726795 0.809044
vt 0.689315 0.868661
vt 0.688760 0.888862
vt 0.690978 0.808061
vt 0.690424 0.828261
vt 0.669761 0.807479
vt 0.691533 0.787861
vt 0.671048 0.778315
vt 0.703970 0.767987
vt 0.692088 0.767660
vt 0.672335 0.749152
vt 0.693554 0.749735
vt 0.688205 0.909062
vt 0.687651 0.929262
vt 0.666912 0.946659
vt 0.667227 0.917469
vt 0.751791 0.948989
vt 0.730874 0.948415
vt 0.739617 0.768966
vt 0.689869 0.848461
vt 0.650046 0.806328
vt 0.652359 0.765475
vt 0.649843 0.969477
vt 0.648835 0.928313
vt 0.656594 0.723599
vt 0.686419 0.724418
vt 0.739743 0.971945
vt 0.727905 0.768644
vt 0.715852 0.768313
vt 0.715298 0.788513
vt 0.703416 0.788187
vt 0.700642 0.889188
vt 0.712525 0.889514
vt 0.711970 0.909714
vt 0.700088 0.909388
vt 0.688131 0.947241
vt 0.709351 0.947824
vt 0.709492 0.971115
vt 0.679668 0.970295
vt 0.736297 0.750908
vt 0.714774 0.750317
vt 0.716184 0.727382
vt 0.746448 0.727719
vt 0.699533 0.929588
vt 0.711415 0.929914
vt 0.702861 0.808387
vt 0.714743 0.808713
vt 0.714189 0.828914
vt 0.702306 0.828587
vt 0.701751 0.848788
vt 0.713634 0.849114
vt 0.713080 0.869314
vt 0.701197 0.868988
vt 0.315377 0.152367
vt 0.576394 0.351252
vt 0.816133 0.948425
vt 0.542094 0.101322
vt 0.580064 0.411718
vt 0.589692 0.411537
vt 0.825781 0.948241
vt 0.824373 0.912644
vt 0.569996 0.837437
vt 0.579071 0.869397
vt 0.579828 0.836678
vt 0.589260 0.783636
vt 0.579778 0.782058
vt 0.812122 0.878378
vt 0.599896 0.965995
vt 0.597155 0.937942
vt 0.587568 0.938995
vt 0.583742 0.903567
vt 0.497165 0.597661
vt 0.520566 0.676741
vt 0.507140 0.597669
vt 0.528815 0.523755
vt 0.520387 0.518363
vt 0.581023 0.468117
vt 0.529068 0.671363
vt 0.586883 0.718379
vt 0.451278 0.098944
vt 0.187821 0.098621
vt 0.245744 0.384936
vt 0.626322 0.018492
vt 0.905751 0.074373
vt 0.346794 0.981863
vt 0.588285 0.866664
vt 0.593376 0.902168
vt 0.821498 0.876214
vt 0.541615 0.124269
vt 0.805770 0.846535
vt 0.822518 0.356538
vt 0.737084 0.602004
vt 0.315418 0.098651
vt 0.816541 0.732459
vt 0.442957 0.098884
vt 0.442936 0.122647
vt 0.179552 0.098740
vt 0.179862 0.122610
vt 0.820789 0.473831
vt 0.581734 0.726251
vt 0.315399 0.122662
vt 0.379531 0.098705
vt 0.759039 0.681592
vt 0.251303 0.098609
vt 0.251289 0.122621
vt 0.761755 0.523113
vt 0.363244 0.758971
vt 0.449115 0.075375
vt 0.538874 0.015696
vt 0.450010 0.226956
vt 0.386130 0.279564
vt 0.192363 0.228632
vt 0.103114 0.278407
vt 0.019110 0.584768
vt 0.191431 0.077077
vt 0.255267 0.017458
vt 0.365491 0.594084
vt 0.385659 0.227414
vt 0.321775 0.278261
vt 0.384669 0.075715
vt 0.449058 0.015039
vt 0.018380 0.643326
vt 0.255821 0.076619
vt 0.319817 0.017577
vt 0.191282 0.531377
vt 0.246886 0.610169
vt 0.202283 0.495755
vt 0.246107 0.533644
vt 0.148480 0.569779
vt 0.192331 0.607552
vt 0.203144 0.610504
vt 0.247720 0.648446
vt 0.191934 0.493364
vt 0.148762 0.607798
vt 0.193110 0.645548
vt 0.246568 0.495383
vt 0.202569 0.534011
vt 0.246467 0.571925
vt 0.148197 0.531764
vt 0.191355 0.569492
vt 0.191110 0.383586
vt 0.193829 0.755355
vt 0.248549 0.758903
vt 0.320244 0.076162
vt 0.384554 0.016594
vt 0.321233 0.227860
vt 0.257010 0.278288
vt 0.363651 0.649738
vt 0.063860 0.228977
vt 0.013040 0.214332
vt 0.578398 0.225800
vt 0.539708 0.275599
vt 0.314594 0.645735
vt 0.362925 0.699030
vt 0.062999 0.078188
vt 0.101134 0.018691
vt 0.073472 0.528106
vt 0.026592 0.412602
vt 0.069830 0.755325
vt 0.018307 0.696824
vt 0.633770 0.988061
vt 0.630470 0.081658
vt 0.256811 0.228283
vt 0.192458 0.278953
vt 0.902990 0.641699
vt 0.848351 0.544502
vt 0.985990 0.081421
vt 0.847501 0.848905
vt 0.903875 0.450565
vt 0.849153 0.398517
vt 0.986150 0.413049
vt 0.931248 0.369378
vt 0.986133 0.321301
vt 0.931170 0.271980
vt 0.904835 0.264210
vt 0.850433 0.169008
vt 0.904045 0.398842
vt 0.849420 0.352913
vt 0.986002 0.272053
vt 0.931146 0.176768
vt 0.904313 0.353235
vt 0.849656 0.312838
vt 0.931812 0.923743
vt 0.931790 0.854993
vt 0.986366 0.648634
vt 0.931231 0.554329
vt 0.986143 0.460134
vt 0.931256 0.413058
vt 0.904548 0.313160
vt 0.849943 0.263888
vt 0.986140 0.369368
vt 0.931240 0.321311
vt 0.070334 0.918778
vt 0.020872 0.865639
vt 0.358390 0.874207
vt 0.079372 0.364608
vt 0.114138 0.301789
vt 0.020210 0.524826
vt 0.316986 0.368276
vt 0.361251 0.418406
vt 0.150807 0.915391
vt 0.269793 0.984143
vt 0.311092 0.841504
vt 0.069908 0.837189
vt 0.019230 0.754447
vt 0.985961 0.554360
vt 0.931264 0.460154
vt 0.905264 0.169445
vt 0.850857 0.074127
vt 0.514272 0.226486
vt 0.450308 0.276502
vt 0.193224 0.700440
vt 0.307724 0.923121
vt 0.245990 0.440182
vt 0.513471 0.075062
vt 0.577688 0.075040
vt 0.815848 0.788959
vt 0.497107 0.099520
vt 0.496820 0.123529
vt 0.317576 0.450009
vt 0.364288 0.531037
vt 0.985657 0.176765
vt 0.847580 0.916780
vt 0.903081 0.546035
vt 0.848849 0.450216
vt 0.076252 0.446236
vt 0.035849 0.301346
vt 0.127145 0.077530
vt 0.190794 0.016794
vt 0.203434 0.648747
vt 0.247977 0.703662
vt 0.191299 0.438503
vt 0.128024 0.228957
vt 0.015523 0.275813
vt 0.823503 0.416861
vt 0.133645 0.099255
vt 0.133980 0.123263
vt 0.089628 0.153651
vt 0.450082 0.152528
vt 0.100432 0.979078
vt 0.281073 0.305086
vt 0.986728 0.786148
vt 0.931609 0.716511
vt 0.902358 0.779226
vt 0.847832 0.710237
vt 0.628689 0.213499
vt 0.012204 0.085418
vt 0.149049 0.795023
vt 0.194319 0.835262
vt 0.204565 0.799408
vt 0.249144 0.839248
vt 0.188811 0.152197
vt 0.134446 0.152993
vt 0.180805 0.182443
vt 0.379505 0.152415
vt 0.441910 0.182526
vt 0.398573 0.880549
vt 0.629911 0.879463
vt 0.814649 0.913468
vt 0.496307 0.153260
vt 0.540703 0.184145
vt 0.248527 0.799078
vt 0.014032 0.022183
vt 0.902851 0.710484
vt 0.848096 0.641488
vt 0.357915 0.306375
vt 0.089185 0.123933
vt 0.450936 0.122813
vt 0.248418 0.922548
vt 0.185846 0.979117
vt 0.986634 0.854959
vt 0.931749 0.786243
vt 0.578046 0.112685
vt 0.631360 0.145093
vt 0.150346 0.835521
vt 0.194276 0.875204
vt 0.187862 0.122455
vt 0.251249 0.152318
vt 0.180672 0.152327
vt 0.379509 0.122717
vt 0.441944 0.152387
vt 0.631163 0.916454
vt 0.541124 0.153992
vt 0.495441 0.207107
vt 0.815427 0.845839
vt 0.251227 0.206029
vt 0.315354 0.182496
vt 0.379448 0.206124
vt 0.821936 0.724635
vt 0.135231 0.206840
vt 0.830446 0.472521
vt 0.315337 0.206083
vt 0.379460 0.182536
vt 0.189614 0.205936
vt 0.188800 0.182338
vt 0.251250 0.182441
vt 0.194095 0.794721
vt 0.627099 0.272145
vt 0.986469 0.716402
vt 0.931473 0.648744
vt 0.024920 0.975567
vt 0.449388 0.206242
vt 0.449904 0.182643
vt 0.495862 0.183429
vt 0.090002 0.183806
vt 0.134845 0.183161
vt 0.137909 0.365028
vt 0.197159 0.304131
vt 0.902139 0.848962
vt 0.847528 0.779164
vt 0.063426 0.191871
vt 0.013065 0.149478
vt 0.204867 0.839581
vt 0.249272 0.879996
vt 0.401862 0.916921
vt 0.586062 0.476236
vt 0.590534 0.466573
vt 0.833147 0.417189
vt 0.591313 0.728218
vt 0.767668 0.676468
vt 0.441060 0.206123
vt 0.826203 0.734558
vt 0.770161 0.528562
vt 0.747034 0.602190
vt 0.090406 0.207401
vt 0.825354 0.790483
vt 0.540263 0.207739
vt 0.088779 0.099858
vt 0.825271 0.975735
vt 0.825789 0.482013
vt 0.181286 0.206043
vt 0.586620 0.357547
vt 0.815462 0.982598
vt 0.063198 0.153595
vt 0.405315 0.953253
vt 0.578426 0.188692
vt 0.629791 0.842239
vt 0.578253 0.150416
vt 0.632485 0.952409
vt 0.063023 0.115849
vt 0.396399 0.842807
vt 0.639376 0.360323
vt 0.640624 0.420786
vt 0.399539 0.716760
vt 0.395858 0.778331
vt 0.395470 0.357820
vt 0.397590 0.418205
vt 0.637630 0.719269
vt 0.633120 0.780522
vt 0.642641 0.541306
vt 0.642562 0.481696
vt 0.401942 0.656783
vt 0.402676 0.597671
vt 0.402051 0.538700
vt 0.400545 0.479126
vt 0.641116 0.659462
vt 0.641825 0.600344
vt 0.198246 0.365994
vt 0.205173 0.880327
vt 0.128801 0.920222
vt 0.149806 0.755652
vt 0.189046 0.921496
vt 0.150576 0.875456
vt 0.257659 0.366864
vt 0.204264 0.759235
vt 0.147088 0.383916
vt 0.147500 0.438832
vt 0.317750 0.532004
vt 0.203849 0.703991
vt 0.149063 0.645820
vt 0.149434 0.700736
vt 0.201458 0.385267
vt 0.201871 0.440511
vt 0.202858 0.572253
vt 0.313730 0.702581
vt 0.314094 0.759488
vt 0.071746 0.698553
vt 0.147912 0.493748
vt 0.316550 0.588861
vt 0.072643 0.584880
vt 0.071887 0.641703
vt 0.769141 0.972752
vt 0.776637 0.851797
vt 0.777263 0.830947
vt 0.774505 0.891131
vt 0.775854 0.870737
vt 0.773190 0.931979
vt 0.776666 0.809546
vt 0.776894 0.768227
vt 0.775892 0.726874
vt 0.197085 0.295046
vt 0.281385 0.295942
vt 0.185579 0.988211
vt 0.100024 0.988206
vt 0.016674 0.983414
vt 0.011844 0.869211
vt 0.269848 0.993276
vt 0.354502 0.989923
vt 0.986706 0.923726
vt 0.367460 0.875046
vt 0.111527 0.292618
vt 0.027981 0.293079
vt 0.366205 0.298318
vt 0.370234 0.414356
vt 0.010159 0.754402
vt 0.017771 0.408381
vt 0.011151 0.524442
vt 0.009245 0.696914
vt 0.374552 0.594107
vt 0.372719 0.649939
vt 0.373355 0.530833
vt 0.010041 0.584707
vt 0.009313 0.643511
vt 0.371995 0.699095
vt 0.372312 0.759194
vt 0.002753 0.148898
vt 0.001845 0.081331
vt 0.641663 0.145198
vt 0.639082 0.213827
vt 0.640705 0.077466
vt 0.634930 0.009220
vt 0.194830 0.915150
vt 0.005129 0.013019
vt 0.097969 0.008433
vt 0.635966 0.281325
vt 0.543317 0.285880
vt 0.002711 0.217557
vt 0.006746 0.285087
vt 0.319757 0.007285
vt 0.384353 0.006294
vt 0.321669 0.288558
vt 0.257060 0.288589
vt 0.255285 0.007157
vt 0.190723 0.006499
vt 0.099608 0.288703
vt 0.192459 0.289247
vt 0.386278 0.289854
vt 0.450621 0.286801
vt 0.541927 0.005400
vt 0.448991 0.004743
vt 0.590952 0.973744
vt 0.408661 0.988260
vt 0.832306 0.363326
vt 0.902474 0.916750
vt 0.931096 0.081451
vt 0.249756 0.919594
vt 0.205470 0.919926
f 33/1 36/2 61/419 69/415
f 78/3 55/4 66/416 80/418
f 54/5 49/6 67/7 68/8
f 42/9 45/10 70/414 65/417
f 52/11 53/12 62/13 59/14
f 87/15 46/16 60/421 89/420
f 155/17 76/18 37/19 140/20
f 152/21 34/22 41/23 148/24
f 151/25 40/26 44/27 149/28
f 156/29 85/30 35/31 150/32
f 148/24 41/23 40/26 151/25
f 150/32 35/31 34/22 152/21
f 43/33 29/34 49/6 54/5
f 47/35 38/36 52/11 56/37
f 86/38 47/35 56/37 88/39
f 34/22 35/31 36/2 33/1
f 40/26 41/23 45/10 42/9
f 115/40 32/41 48/42 121/43
f 75/44 30/45 50/46 77/47
f 41/23 34/22 33/1 45/10
f 140/20 37/19 51/48 141/49
f 76/18 44/27 55/4 78/3
f 44/27 40/26 42/9 55/4
f 85/30 31/50 46/16 87/15
f 39/51 43/33 54/5 53/12
f 38/36 39/51 53/12 52/11
f 88/39 56/37 58/52 90/53
f 55/4 42/9 65/417 66/416
f 53/12 54/5 68/8 62/13
f 56/37 52/11 59/14 58/52
f 45/10 33/1 69/415 70/414
f 77/47 50/46 63/54 79/55
f 121/43 48/42 57/56 122/57
f 141/49 51/48 64/413 142/58
f 49/6 77/47 79/55 67/7
f 37/19 76/18 78/3 51/48
f 29/34 75/44 77/47 49/6
f 149/28 44/27 76/18 155/17
f 51/48 78/3 80/418 64/413
f 48/42 88/39 90/53 57/56
f 35/31 85/30 87/15 36/2
f 32/41 86/38 88/39 48/42
f 147/59 31/50 85/30 156/29
f 36/2 87/15 89/420 61/419
f 115/40 98/60 111/61 124/62
f 117/63 101/64 109/65 123/66
f 131/67 106/68 108/69 132/70
f 153/71 105/72 107/73 154/74
f 130/75 99/76 106/68 131/67
f 147/59 98/60 105/72 153/71
f 118/77 102/78 104/79 120/80
f 116/81 100/82 103/83 119/84
f 124/62 111/61 102/78 118/77
f 119/84 103/83 101/64 117/63
f 120/80 104/79 100/82 116/81
f 123/66 109/65 99/76 130/75
f 135/318 91/85 92/286 136/324
f 137/327 93/309 91/85 135/318
f 75/44 123/66 130/75 30/45
f 38/36 120/80 116/81 39/51
f 43/33 119/84 117/63 29/34
f 86/38 124/62 118/77 47/35
f 39/51 116/81 119/84 43/33
f 47/35 118/77 120/80 38/36
f 30/45 130/75 131/67 50/46
f 50/46 131/67 132/70 63/54
f 29/34 117/63 123/66 75/44
f 32/41 115/40 124/62 86/38
f 105/72 121/43 122/57 107/73
f 98/60 115/40 121/43 105/72
f 91/85 125/132 126/311 92/286
f 93/309 127/136 125/132 91/85
f 31/50 147/59 153/71 46/16
f 46/16 153/71 154/74 60/421
f 98/60 147/59 156/29 111/61
f 101/64 149/28 155/17 109/65
f 106/68 141/49 142/58 108/69
f 99/76 140/20 141/49 106/68
f 102/78 150/32 152/21 104/79
f 100/82 148/24 151/25 103/83
f 111/61 156/29 150/32 102/78
f 103/83 151/25 149/28 101/64
f 104/79 152/21 148/24 100/82
f 109/65 155/17 140/20 99/76
f 157/360 158/364 162/87 161/91
f 158/86 157/363 160/90 159/89
f 159/89 160/90 187/348 186/108
f 161/91 162/87 313/290 314/92
f 163/93 164/95 286/117 285/94
f 164/95 163/93 166/97 165/96
f 165/96 166/97 197/131 196/350
f 167/121 168/316 315/119 316/98
f 168/316 167/121 169/248 170/357
f 170/357 169/248 189/125 188/353
f 171/122 172/474 204/349 203/266
f 172/99 171/472 173/101 174/100
f 174/100 173/101 288/102 287/118
f 175/123 176/355 192/351 191/134
f 176/355 175/123 177/137 178/354
f 178/354 177/137 201/130 200/361
f 179/103 180/105 184/109 183/104
f 180/105 179/103 182/107 181/106
f 181/106 182/107 186/108 185/347
f 183/104 184/109 195/110 197/131
f 185/126 187/111 194/299 193/127
f 188/333 190/352 291/287 292/334
f 190/320 189/125 191/134 192/351
f 193/127 194/299 289/270 290/312
f 196/128 195/112 199/308 198/129
f 198/129 199/308 309/283 310/310
f 200/325 202/362 311/285 312/326
f 202/322 201/130 203/266 204/349
f 205/138 206/446 276/431 275/226
f 206/446 205/138 207/185 208/445
f 208/445 207/185 259/179 260/441
f 209/152 210/471 212/470 211/140
f 210/471 209/152 236/176 235/461
f 211/140 212/470 255/452 256/114
f 213/469 214/242 249/183 250/457
f 214/242 213/469 216/468 215/142
f 215/142 216/468 234/462 233/150
f 217/467 218/195 242/178 241/463
f 218/195 217/467 220/466 219/144
f 219/144 220/466 243/459 244/265
f 221/153 222/444 224/443 223/145
f 222/444 221/153 237/191 238/439
f 223/145 224/443 262/438 261/229
f 225/465 226/260 253/187 254/455
f 226/260 225/465 228/464 227/147
f 227/147 228/464 240/460 239/155
f 229/442 230/252 269/231 270/435
f 230/252 229/442 232/440 231/148
f 231/148 232/440 260/441 259/179
f 233/150 234/462 241/463 242/178
f 235/461 236/176 239/155 240/460
f 238/439 237/191 266/236 265/436
f 244/265 243/459 246/458 245/181
f 245/181 246/458 305/447 306/343
f 247/456 248/329 303/277 304/450
f 248/329 247/456 250/457 249/183
f 251/454 252/294 307/278 308/448
f 252/294 251/454 254/455 253/187
f 256/114 255/452 258/451 257/193
f 257/193 258/451 301/449 302/305
f 261/229 262/438 264/437 263/189
f 263/189 264/437 271/433 272/258
f 265/436 266/236 283/225 284/427
f 267/434 268/297 299/272 300/423
f 268/297 267/434 270/435 269/231
f 272/258 271/433 274/432 273/228
f 273/228 274/432 297/422 298/339
f 275/226 276/431 277/429 278/116
f 278/116 277/429 280/428 279/233
f 279/233 280/428 293/424 294/301
f 281/426 282/332 295/271 296/425
f 282/332 281/426 284/427 283/225
f 285/94 286/117 287/118 288/102
f 290/312 289/270 292/334 291/287
f 294/301 293/424 296/425 295/271
f 298/339 297/422 300/423 299/272
f 302/305 301/449 304/450 303/277
f 306/343 305/447 308/448 307/278
f 310/310 309/283 312/326 311/285
f 314/92 313/290 316/98 315/119
f 133/250 160/249 157/88 161/120
f 113/370 162/87 158/364 2/192
f 82/376 166/97 163/93 4/372
f 72/380 169/248 167/121 3/368
f 138/366 173/101 171/472 1/473
f 14/381 177/137 175/123 5/388
f 12/385 182/107 179/103 6/384
f 127/136 184/135 180/124 125/132
f 71/378 159/89 186/108 7/386
f 11/387 191/134 189/125 8/379
f 126/311 181/133 185/126 193/127
f 134/268 165/267 196/128 198/129
f 81/374 203/266 201/130 9/382
f 13/383 183/104 197/131 10/375
f 125/132 180/124 181/133 126/311
f 5/388 175/123 191/134 11/387
f 7/386 186/108 182/107 12/385
f 6/384 179/103 183/104 13/383
f 199/308 195/112 184/135 127/136
f 9/382 201/130 177/137 14/381
f 15/407 25/406 207/185 205/138
f 71/246 7/139 209/152 211/140
f 11/149 8/141 214/242 215/142
f 81/264 9/143 218/195 219/144
f 27/411 24/412 221/153 223/145
f 13/154 10/146 226/260 227/147
f 21/410 28/399 230/252 231/148
f 5/177 11/149 215/142 233/150
f 7/139 12/151 236/176 209/152
f 24/412 23/408 237/191 221/153
f 6/175 13/154 227/147 239/155
f 20/409 217/164 241/156 27/170
f 22/405 240/169 228/157 21/162
f 15/158 210/167 235/159 25/168
f 24/160 234/171 216/161 23/165
f 21/162 228/157 225/163 28/261
f 83/398 220/263 217/164 20/409
f 23/165 216/161 213/166 26/401
f 73/404 212/245 210/167 15/158
f 25/168 235/159 240/169 22/405
f 27/170 241/156 234/171 24/160
f 146/390 246/345 243/477 17/478
f 74/402 250/243 247/173 19/392
f 84/400 254/262 251/174 18/396
f 129/394 258/307 255/453 16/232
f 12/151 6/175 239/155 236/176
f 14/194 5/177 233/150 242/178
f 22/184 21/410 231/148 259/179
f 138/342 1/180 244/265 245/181
f 72/241 3/182 248/329 249/183
f 25/406 22/184 259/179 207/185
f 82/259 4/186 252/294 253/187
f 83/257 20/188 261/229 263/189
f 23/408 26/190 266/236 237/191
f 113/304 2/247 256/114 257/193
f 9/143 14/194 242/178 218/195
f 270/255 267/196 57/296 90/197
f 274/340 271/475 60/254 154/199
f 232/208 229/200 58/256 59/201
f 222/222 238/202 65/219 70/203
f 262/210 224/204 69/223 61/205
f 276/239 206/206 67/221 79/207
f 260/212 232/208 59/201 62/209
f 264/253 262/210 61/205 89/211
f 208/220 260/212 62/209 68/213
f 280/302 277/430 63/214 132/215
f 284/237 281/216 64/331 80/217
f 238/202 265/218 66/238 65/219
f 206/206 208/220 68/213 67/221
f 224/204 222/222 70/203 69/223
f 74/235 19/224 282/332 283/225
f 73/234 15/407 205/138 275/226
f 146/338 17/227 272/258 273/228
f 20/188 27/411 223/145 261/229
f 84/251 18/230 268/297 269/231
f 129/300 16/244 278/116 279/233
f 16/244 73/234 275/226 278/116
f 26/190 74/235 283/225 266/236
f 265/218 284/237 80/217 66/238
f 277/115 276/239 79/207 63/240
f 8/141 72/241 249/183 214/242
f 26/401 213/166 250/243 74/402
f 16/403 255/113 212/245 73/404
f 2/247 71/246 211/140 256/114
f 2/377 158/86 159/89 71/378
f 8/379 189/125 169/248 72/380
f 194/299 187/111 160/249 133/250
f 28/399 84/251 269/231 230/252
f 271/198 264/253 89/211 60/476
f 229/200 270/255 90/197 58/256
f 17/227 83/257 263/189 272/258
f 10/146 82/259 253/187 226/260
f 28/261 225/163 254/262 84/400
f 17/397 243/172 220/263 83/398
f 1/180 81/264 219/144 244/265
f 1/373 171/122 203/266 81/374
f 286/298 164/359 165/267 134/268
f 10/375 197/131 166/97 82/376
f 174/336 287/269 112/284 144/337
f 292/334 289/270 110/291 143/335
f 139/391 97/393 294/301 295/271
f 114/395 96/389 298/339 299/272
f 296/330 293/273 108/303 142/274
f 300/295 297/275 107/341 122/276
f 145/367 95/369 302/305 303/277
f 128/371 94/365 306/343 307/278
f 139/279 304/328 301/280 97/306
f 114/281 308/293 305/282 96/344
f 312/326 309/283 93/309 137/327
f 144/337 112/284 310/310 311/285
f 136/324 92/286 290/312 291/287
f 128/288 285/94 288/102 94/346
f 145/289 316/98 313/290 95/313
f 143/335 110/291 314/314 315/292
f 4/372 163/93 285/94 128/288
f 18/396 251/174 308/293 114/281
f 4/186 128/371 307/278 252/294
f 267/196 300/295 122/276 57/296
f 18/230 114/395 299/272 268/297
f 287/269 286/298 134/268 112/284
f 289/270 194/299 133/250 110/291
f 97/393 129/300 279/233 294/301
f 293/273 280/302 132/215 108/303
f 95/369 113/304 257/193 302/305
f 97/306 301/280 258/307 129/394
f 309/283 199/308 127/136 93/309
f 112/284 134/268 198/129 310/310
f 92/286 126/311 193/127 290/312
f 95/313 313/290 162/87 113/370
f 110/291 133/250 161/120 314/314
f 170/315 143/335 315/292 168/358
f 3/368 167/121 316/98 145/289
f 178/317 137/327 135/318 176/323
f 192/319 136/324 291/287 190/352
f 204/321 144/337 311/285 202/362
f 176/323 135/318 136/324 192/319
f 200/325 312/326 137/327 178/317
f 19/392 247/173 304/328 139/279
f 3/182 145/367 303/277 248/329
f 281/216 296/330 142/274 64/331
f 19/224 139/391 295/271 282/332
f 188/333 292/334 143/335 170/315
f 172/356 174/336 144/337 204/321
f 96/389 146/338 273/228 298/339
f 297/275 274/340 154/199 107/341
f 94/365 138/342 245/181 306/343
f 96/344 305/282 246/345 146/390
f 94/346 288/102 173/101 138/366
f 185/347 186/108 187/348
f 188/353 189/125 190/320
f 195/110 196/350 197/131
f 200/361 201/130 202/322
v 0.500000 5.131219 -0.000464
v -0.500000 5.131219 -0.000464
v 0.500000 5.131219 0.849536
v -0.500000 5.131219 0.849536
v -0.500000 5.131219 -0.850464
v 0.500000 5.131219 -0.850464
v -0.500000 5.131219 0.424536
v 0.500000 5.131219 0.424536
v 0.500000 5.131219 -0.425464
v -0.500000 5.131219 -0.425464
v -0.500000 5.131219 -1.275464
v 0.500000 5.131219 -1.275464
v -0.500000 7.901006 -1.192786
v 0.500000 7.901006 -1.192786
v -0.500000 8.871406 -1.192786
v 0.500000 8.871406 -1.192786
v 0.500000 8.386206 -1.253530
v -0.500000 8.386206 -1.253530
v 0.500000 5.131219 1.274536
v -0.500000 5.131219 1.274536
v 0.500000 7.901006 1.191347
v -0.500000 7.901006 1.191347
v 0.500000 8.871406 1.191347
v -0.500000 8.871406 1.191347
v 0.500000 8.386206 1.239434
v -0.500000 8.386206 1.239434
v -0.500000 6.400303 -0.384253
v 0.500000 6.534424 0.766347
v 0.500000 6.400303 0.382814
v 0.500000 6.363046 -0.000720
v 0.500000 6.400303 -0.384253
v -0.500000 6.534424 -0.767786
v 0.500000 6.534424 -0.767786
v -0.500000 6.534424 0.766347
v -0.500000 6.400303 0.382814
v -0.500000 6.363046 -0.000720
v -0.500000 6.516113 -1.234125
v 0.500000 6.516113 -1.234125
v -0.500000 6.516113 1.232942
v 0.500000 6.516113 1.232942
v 0.423276 3.207942 1.699007
v 0.423010 3.131219 1.622546
v 0.500000 3.207944 1.622281
v 0.500000 3.207944 1.274536
v 0.423276 3.131219 1.274536
v -0.500000 3.207944 1.622281
v -0.423276 3.131219 1.622812
v -0.423276 3.207942 1.699007
v -0.423276 3.131219 1.274536
v -0.500000 3.207944 1.274536
v -0.500000 5.131551 1.609017
v -0.423276 5.131219 1.685745
v 0.423276 5.131219 1.685745
v 0.500000 5.131551 1.609017
v 0.423718 3.207497 -1.701350
v 0.500000 3.207944 -1.624626
v 0.423718 3.131219 -1.624182
v 0.423276 3.131219 -1.275464
v 0.500000 3.207944 -1.275464
v 0.500000 5.131219 -1.646977
v 0.423276 5.131219 -1.723702
v -0.500000 8.126140 0.322142
v -0.423276 8.197691 0.289551
v -0.423276 8.418888 0.581916
v -0.500000 8.374717 0.650697
v -0.500000 3.207944 -1.624626
v -0.423276 3.207938 -1.701355
v -0.423276 3.131219 -1.623740
v -0.423276 5.131219 -1.723702
v -0.500000 5.131219 -1.646977
v -0.500000 3.810756 -0.000464
v -0.423276 3.731042 -0.000464
v -0.423276 3.594353 -0.485457
v -0.500000 3.661435 -0.530277
v 0.500000 3.810756 -0.000464
v 0.423276 3.731042 -0.000464
v 0.423276 3.594353 0.484529
v 0.500000 3.661435 0.529349
v 0.500000 3.661435 -0.530277
v 0.423276 3.594353 -0.485457
v 0.421299 3.179798 0.811250
v 0.500000 3.204818 0.885240
v 0.421299 3.131219 0.911388
v -0.500000 3.204818 0.885240
v -0.422288 3.179188 0.811731
v -0.422288 3.131219 0.910612
v -0.423276 3.594353 0.484529
v -0.500000 3.661435 0.529349
v 0.500000 8.126140 -0.327771
v 0.423276 8.197691 -0.295179
v 0.423276 8.418888 -0.587545
v 0.500000 8.373286 -0.654435
v 0.422288 3.179188 -0.812659
v 0.421299 3.131219 -0.912316
v 0.500000 3.204818 -0.886168
v -0.500000 3.204818 -0.886168
v -0.422288 3.131219 -0.911540
v -0.422288 3.179188 -0.812659
v -0.423276 3.131219 -1.275464
v -0.500000 3.207944 -1.275464
v -0.423276 8.418888 -0.587545
v -0.500000 8.373286 -0.654435
v -0.423276 8.197691 -0.295179
v -0.500000 8.126140 -0.327771
v 0.500000 8.374717 0.619500
v 0.423276 8.418888 0.581916
v 0.423276 8.197691 0.289551
v 0.500000 8.142653 0.322142
v 0.500000 8.057848 -0.002814
v 0.423276 8.136248 -0.002814
v -0.423276 8.907948 -1.700464
v -0.500000 8.895434 -1.624371
v -0.423276 8.386165 -1.733022
v -0.500000 8.383810 -1.656295
v 0.500000 8.895434 -1.624371
v 0.423276 8.907948 -1.700464
v 0.423276 8.386165 -1.733022
v 0.500000 8.383810 -1.656295
v -0.423276 8.136248 -0.002814
v -0.500000 8.057848 -0.002814
v 0.423276 8.788822 -0.691380
v 0.500000 8.788822 -0.787781
v -0.500000 8.788822 -0.771069
v -0.423276 8.788822 -0.691380
v 0.500000 7.869582 -1.655897
v 0.423190 7.864382 -1.732531
v 0.423250 6.497801 -1.724433
v 0.500000 6.500666 -1.647736
v 0.423276 7.864382 1.699536
v 0.500000 7.865666 1.622803
v 0.500000 6.498189 1.630272
v 0.423276 6.497801 1.707000
v -0.500000 7.865666 1.622803
v -0.423276 7.864382 1.699536
v -0.423276 6.497801 1.707000
v -0.500000 6.498189 1.630272
v -0.423190 7.864382 -1.732531
v -0.500000 7.869582 -1.655897
v -0.500000 6.500666 -1.647736
v -0.423250 6.497801 -1.724433
v -0.423276 10.093846 -0.850464
v -0.500000 10.025093 -0.815724
v -0.500000 9.772968 -1.220467
v -0.423276 9.829102 -1.275464
v -0.423276 10.308396 -0.000464
v -0.500000 10.231233 -0.000464
v -0.500000 10.187747 -0.406860
v -0.423276 10.262919 -0.425464
v 0.423276 10.308396 -0.000464
v 0.500000 10.231233 -0.000464
v 0.423276 10.262919 -0.425464
v 0.500000 10.187747 -0.406860
v 0.500000 9.203040 0.650671
v 0.423276 9.158756 0.581916
v 0.423276 8.788822 0.664117
v 0.500000 8.788822 0.742713
v -0.500000 9.204467 -0.654404
v -0.423276 9.158756 -0.587545
v 0.423276 9.158756 -0.587545
v 0.500000 9.204467 -0.654404
v -0.423276 9.158756 0.581916
v -0.500000 9.203040 0.650671
v -0.423276 8.788822 0.664117
v -0.500000 8.788822 0.742713
v -0.500000 8.896311 1.623206
v -0.423276 8.907948 1.699536
v -0.423276 8.386165 1.719844
v -0.500000 8.386165 1.643062
v -0.423276 9.367224 1.575544
v -0.500000 9.335505 1.504636
v -0.500000 9.772968 1.219539
v -0.423276 9.829102 1.274536
v 0.500000 9.335505 1.504636
v 0.423276 9.367224 1.575544
v 0.423276 9.829102 1.274536
v 0.500000 9.772968 1.219539
v 0.423276 10.093846 -0.850464
v 0.500000 10.025093 -0.815724
v 0.423276 9.829102 -1.275464
v 0.500000 9.772968 -1.220467
v -0.423276 9.367224 -1.576472
v -0.500000 9.335505 -1.505564
v 0.500000 9.335505 -1.505564
v 0.423276 9.367224 -1.576472
v 0.423276 8.907948 1.699536
v 0.500000 8.896311 1.623206
v 0.423276 10.093846 0.849536
v 0.500000 10.025093 0.814796
v -0.423276 10.093846 0.849536
v -0.500000 10.025093 0.814796
v -0.500000 10.187747 0.405932
v -0.423276 10.262919 0.424536
v 0.423276 10.262919 0.424536
v 0.500000 10.187747 0.405932
v -0.500000 9.449625 0.322938
v -0.423276 9.378730 0.289551
v -0.423276 9.448801 -0.002814
v -0.500000 9.527699 -0.002814
v 0.500000 9.449625 0.322938
v 0.423276 9.378730 0.289551
v 0.423276 9.448801 -0.002814
v 0.500000 9.527699 0.020693
v 0.500000 9.449625 -0.328567
v 0.423276 9.378730 -0.295179
v -0.423276 9.378730 -0.295179
v -0.500000 9.449625 -0.328567
v 0.423276 8.386165 1.719844
v 0.500000 8.386165 1.643062
vt 0.091487 0.092188
vt 0.983709 0.618225
vt 0.771875 0.621906
vt 0.984782 0.606301
vt 0.567524 0.104287
vt 0.985785 0.656775
vt 0.997984 0.656204
vt 0.002431 0.092246
vt 0.981681 0.587998
vt 0.771876 0.609794
vt 0.619913 0.607223
vt 0.095869 0.079674
vt 0.095945 0.091050
vt 0.983794 0.983283
vt 0.998029 0.945369
vt 0.986002 0.944855
vt 0.994224 0.005325
vt 0.985964 0.224366
vt 0.921312 0.800846
vt 0.937633 0.860909
vt 0.933797 0.800853
vt 0.948264 0.747349
vt 0.937604 0.740777
vt 0.985951 0.699940
vt 0.948303 0.854339
vt 0.992334 0.891743
vt 0.649409 0.103786
vt 0.996709 0.508750
vt 0.429571 0.833636
vt 0.436020 0.801823
vt 0.405567 0.865413
vt 0.412491 0.875495
vt 0.899907 0.103014
vt 0.993494 0.315680
vt 0.404986 0.738896
vt 0.429149 0.770198
vt 0.438490 0.764895
vt 0.448096 0.801719
vt 0.365151 0.890464
vt 0.317927 0.875602
vt 0.467104 0.619544
vt 0.619928 0.619293
vt 0.189118 0.738100
vt 0.307854 0.230534
vt 0.203024 0.802309
vt 0.208041 0.847592
vt 0.207838 0.757011
vt 0.196315 0.850521
vt 0.215458 0.898643
vt 0.317872 0.728759
vt 0.289745 0.765565
vt 0.324534 0.738980
vt 0.364841 0.729943
vt 0.324811 0.865534
vt 0.300900 0.833934
vt 0.002855 0.742033
vt 0.302414 0.634475
vt 0.351200 0.620642
vt 0.091912 0.741974
vt 0.254161 0.666614
vt 0.245401 0.658131
vt 0.215004 0.705905
vt 0.226282 0.893093
vt 0.254816 0.937749
vt 0.246115 0.946290
vt 0.100363 0.738700
vt 0.408412 0.617672
vt 0.225859 0.711393
vt 0.281018 0.799737
vt 0.289908 0.839106
vt 0.607233 0.006693
vt 0.992902 0.590553
vt 0.091619 0.294520
vt 0.772289 0.984188
vt 0.617156 0.486830
vt 0.442055 0.435638
vt 0.770730 0.581851
vt 0.987300 0.212470
vt 0.186108 0.292152
vt 0.774634 0.356649
vt 0.921642 0.405368
vt 0.616595 0.715520
vt 0.412177 0.731258
vt 0.773107 0.753744
vt 0.838698 0.005867
vt 0.781022 0.103547
vt 0.773471 0.450546
vt 0.984853 0.506629
vt 0.616877 0.886784
vt 0.440436 0.838572
vt 0.722658 0.006276
vt 0.662224 0.103739
vt 0.991286 0.496762
vt 0.954122 0.005463
vt 0.912642 0.102855
vt 0.999172 0.303801
vt 0.633786 0.359122
vt 0.987270 0.305654
vt 0.773184 0.848024
vt 0.985977 0.901707
vt 0.780678 0.006071
vt 0.723002 0.103752
vt 0.631726 0.758333
vt 0.774130 0.403596
vt 0.937140 0.465392
vt 0.772712 0.706583
vt 0.773224 0.800887
vt 0.839042 0.103343
vt 0.631853 0.843916
vt 0.774860 0.309681
vt 0.938634 0.345737
vt 0.099656 0.634012
vt 0.188781 0.688225
vt 0.590698 0.112060
vt 0.998236 0.196862
vt 0.966209 0.108662
vt 0.928690 0.197492
vt 0.629818 0.200197
vt 0.669178 0.111350
vt 0.559472 0.112343
vt 0.967010 0.197145
vt 0.629017 0.111713
vt 0.591499 0.200543
vt 0.632700 0.444372
vt 0.450348 0.399135
vt 0.618708 0.938768
vt 0.467456 0.986718
vt 0.002657 0.438358
vt 0.091807 0.582065
vt 0.618244 0.538631
vt 0.467332 0.580641
vt 0.098322 0.436028
vt 0.188033 0.578708
vt 0.635981 0.801116
vt 0.637419 0.401803
vt 0.442999 0.362427
vt 0.619341 0.316267
vt 0.415538 0.325414
vt 0.321467 0.324391
vt 0.259198 0.261771
vt 0.002988 0.945786
vt 0.101431 0.896951
vt 0.352335 0.983000
vt 0.669979 0.199833
vt 0.709339 0.110986
vt 0.888280 0.109367
vt 0.849472 0.198209
vt 0.352097 0.578676
vt 0.091950 0.799971
vt 0.100753 0.796500
vt 0.189862 0.848397
vt 0.100026 0.688824
vt 0.303338 0.969500
vt 0.303620 0.564519
vt 0.255820 0.532077
vt 0.002823 0.691988
vt 0.002928 0.852704
vt 0.092015 0.900763
vt 0.292129 0.433789
vt 0.206189 0.396312
vt 0.848671 0.109725
vt 0.811229 0.198555
vt 0.779005 0.110356
vt 0.748381 0.199124
vt 0.283945 0.396994
vt 0.211629 0.351216
vt 0.002959 0.900821
vt 0.101734 0.941764
vt 0.210517 0.441523
vt 0.810429 0.110071
vt 0.779806 0.198839
vt 0.293044 0.360421
vt 0.230282 0.305983
vt 0.747581 0.110640
vt 0.710139 0.199470
vt 0.190186 0.896352
vt 0.101107 0.848996
vt 0.002751 0.582123
vt 0.091843 0.636997
vt 0.099296 0.579307
vt 0.188411 0.633413
vt 0.409682 0.986820
vt 0.368612 0.311450
vt 0.364879 0.717727
vt 0.927889 0.109008
vt 0.889081 0.197850
vt 0.409005 0.582012
vt 0.002787 0.637055
vt 0.091879 0.691929
vt 0.471606 0.215156
vt 0.413967 0.258990
vt 0.410100 0.942054
vt 0.189508 0.795901
vt 0.414058 0.214391
vt 0.359585 0.265172
vt 0.355656 0.935197
vt 0.356837 0.217546
vt 0.623825 0.218680
vt 0.468003 0.266513
vt 0.464433 0.935136
vt 0.987750 0.262665
vt 0.774996 0.262410
vt 0.994611 0.102852
vt 0.954457 0.102939
vt 0.772865 0.895185
vt 0.413450 0.472129
vt 0.410415 0.537341
vt 0.409456 0.662502
vt 0.319839 0.470725
vt 0.228042 0.487188
vt 0.091984 0.852646
vt 0.002893 0.800029
vt 0.366462 0.482212
vt 0.356177 0.531138
vt 0.354956 0.668426
vt 0.464562 0.532672
vt 0.772212 0.659132
vt 0.463868 0.667657
vt 0.772539 0.497515
vt 0.984188 0.549622
vt 0.607595 0.104168
vt 0.618254 0.663515
vt 0.775314 0.221028
vt 0.621762 0.264522
vt 0.097353 0.292752
vt 0.187072 0.435429
vt 0.771495 0.544773
vt 0.619423 0.582692
vt 0.002563 0.294578
vt 0.091714 0.438300
vt 0.772449 0.942646
vt 0.620242 0.984815
vt 0.995366 0.985560
vt 0.184671 0.079054
vt 0.992316 0.710036
vt 0.997956 0.697860
vt 0.293121 0.802321
vt 0.300624 0.770682
vt 0.365174 0.876978
vt 0.997435 0.108379
vt 0.303910 0.365674
vt 0.295904 0.397138
vt 0.303122 0.428802
vt 0.326604 0.460628
vt 0.366638 0.470122
vt 0.328194 0.334426
vt 0.368486 0.323650
vt 0.438355 0.398976
vt 0.560273 0.200826
vt 0.432106 0.367273
vt 0.408591 0.335345
vt 0.406979 0.461774
vt 0.431293 0.430503
vt 0.196097 0.754140
vt 0.349016 0.608716
vt 0.408078 0.605590
vt 0.297150 0.623505
vt 0.190856 0.802340
vt 0.467121 0.607461
vt 0.997988 0.903746
vt 0.995022 0.615809
vt 0.999734 0.262264
vt 0.912219 0.005721
vt 0.899564 0.005766
vt 0.947844 0.458968
vt 0.661792 0.006605
vt 0.649137 0.006651
vt 0.949176 0.352404
vt 0.934078 0.405519
vt 0.996334 0.550325
vt 0.567131 0.006842
vt 0.091452 0.080793
vt 0.620523 0.996886
vt 0.467942 0.998786
vt 0.409093 0.998903
vt 0.350109 0.994910
vt 0.298154 0.980509
vt 0.772308 0.996262
vt 0.985033 0.995205
vt 0.092045 0.945728
vt 0.217183 0.492563
vt 0.198796 0.444276
vt 0.247030 0.540460
vt 0.298299 0.575410
vt 0.408583 0.594046
vt 0.349842 0.590541
vt 0.194068 0.396167
vt 0.190489 0.941164
vt 0.199978 0.348184
vt 0.250616 0.253175
vt 0.302803 0.219515
vt 0.219556 0.300346
vt 0.472234 0.203141
vt 0.624245 0.206659
vt 0.619270 0.594715
vt 0.467230 0.592677
vt 0.413616 0.202347
vt 0.354755 0.205657
vt 0.775473 0.209001
vt 0.184746 0.090496
vt 0.997547 0.222248
vt 0.770590 0.593915
vt 0.002424 0.080871
vt 0.982608 0.599888
f 320/697 336/705 355/608 350/553
f 322/683 328/709 354/604 349/567
f 327/680 321/588 348/615 353/702
f 326/558 318/582 352/613 343/575
f 324/562 317/585 346/612 345/581
f 318/582 323/565 351/602 352/613
f 317/585 325/577 347/587 346/612
f 319/584 324/562 345/581 344/560
f 321/588 326/558 343/575 348/615
f 325/577 322/683 349/567 347/587
f 335/695 319/584 344/560 356/700
f 323/565 320/697 350/553 351/602
f 357/482 359/480 370/481 369/488
f 358/750 357/479 364/486 363/781
f 359/480 358/739 361/485 360/484
f 360/484 361/485 399/714 398/502
f 362/487 364/782 368/780 367/555
f 363/550 362/487 366/698 365/748
f 365/748 366/698 400/566 402/506
f 367/555 368/780 451/773 452/706
f 369/488 370/481 447/520 448/489
f 371/491 373/490 384/712 383/778
f 372/492 371/757 377/756 376/552
f 373/711 372/492 375/494 374/493
f 374/493 375/494 411/578 410/738
f 376/552 377/756 443/751 444/710
f 378/554 379/731 435/726 436/603
f 379/731 378/554 381/684 380/730
f 380/730 381/684 480/691 479/723
f 382/496 384/779 415/740 416/679
f 383/556 382/496 386/701 385/777
f 385/777 386/701 455/676 456/772
f 387/559 388/747 403/743 404/583
f 388/747 387/559 390/589 389/746
f 389/746 390/589 412/576 414/512
f 391/497 392/499 396/503 395/498
f 392/499 391/497 394/501 393/500
f 393/500 394/501 398/502 397/713
f 395/498 396/503 409/504 411/578
f 397/570 399/505 402/745 401/744
f 401/571 400/566 404/583 403/743
f 405/568 406/507 426/508 425/516
f 406/507 405/568 408/510 407/509
f 407/509 408/510 438/517 437/717
f 410/573 409/511 414/742 413/741
f 413/574 412/576 416/679 415/740
f 417/729 418/616 420/614 419/728
f 418/616 417/729 440/725 439/661
f 419/728 420/614 436/603 435/726
f 421/561 422/513 471/531 472/662
f 422/513 421/561 424/515 423/514
f 423/514 424/515 425/516 426/508
f 427/776 428/675 498/522 497/769
f 428/675 427/776 429/775 430/672
f 430/672 429/775 453/771 454/668
f 431/621 432/754 500/755 499/631
f 432/754 431/621 434/660 433/753
f 433/753 434/660 441/605 442/752
f 437/717 438/517 476/518 475/532
f 439/661 440/725 474/724 473/617
f 442/752 441/605 444/710 443/751
f 445/737 446/519 524/545 523/734
f 446/519 445/737 448/489 447/520
f 449/609 450/774 483/763 484/665
f 450/774 449/609 452/706 451/773
f 454/668 453/771 456/772 455/676
f 457/770 458/651 463/644 464/767
f 458/651 457/770 460/768 459/618
f 459/618 460/768 497/769 498/522
f 461/765 462/638 507/647 508/760
f 462/638 461/765 464/767 463/644
f 465/736 466/523 468/524 467/526
f 466/523 465/736 509/732 510/525
f 467/526 468/524 494/541 493/527
f 469/528 470/530 516/716 515/529
f 470/530 469/528 472/662 471/531
f 473/617 474/724 521/719 522/650
f 475/532 476/518 519/548 520/533
f 477/722 478/687 511/637 512/721
f 478/687 477/722 479/723 480/691
f 481/626 482/764 485/762 486/632
f 482/764 481/626 484/665 483/763
f 486/632 485/762 488/761 487/633
f 487/633 488/761 505/759 506/688
f 489/535 490/735 501/733 502/536
f 490/735 489/535 492/538 491/539
f 491/539 492/538 504/546 503/540
f 493/527 494/541 496/542 495/543
f 495/543 496/542 499/631 500/755
f 502/536 501/733 523/734 524/545
f 503/540 504/546 510/525 509/732
f 506/688 505/759 508/760 507/647
f 512/721 511/637 514/643 513/720
f 513/720 514/643 522/650 521/719
f 515/529 516/716 517/715 518/547
f 518/547 517/715 520/533 519/548
f 365/549 361/699 358/483 363/749
f 368/707 364/486 357/479 369/551
f 328/709 375/494 372/492 376/552
f 351/602 350/553 381/684 378/554
f 336/705 366/698 362/487 367/555
f 377/703 371/491 383/778 385/557
f 326/558 390/589 387/559 318/582
f 356/700 344/560 421/561 337/696
f 324/562 394/501 391/497 317/585
f 389/563 396/586 392/564 388/579
f 335/695 360/484 398/502 319/584
f 323/565 404/583 400/566 320/697
f 347/587 349/567 408/510 405/568
f 403/569 393/580 397/570 401/744
f 415/572 374/682 410/573 413/741
f 348/615 343/575 420/614 418/616
f 327/680 416/679 412/576 321/588
f 325/577 395/498 411/578 322/683
f 388/579 392/564 393/580 403/569
f 344/560 345/581 424/515 421/561
f 318/582 387/559 404/583 323/565
f 319/584 398/502 394/501 324/562
f 317/585 391/497 395/498 325/577
f 414/742 409/511 396/586 389/563
f 346/612 347/587 405/568 425/516
f 321/588 412/576 390/589 326/558
f 433/590 429/659 427/591 432/630
f 406/592 419/601 435/727 426/598
f 423/594 379/599 380/595 422/663
f 417/596 407/600 437/597 440/622
f 426/718 435/593 379/599 423/594
f 407/600 417/596 419/601 406/592
f 352/613 351/602 378/554 436/603
f 354/604 444/710 441/605 330/678
f 451/606 448/708 445/607 450/656
f 355/608 452/706 449/609 338/694
f 443/610 456/704 453/611 442/658
f 345/581 346/612 425/516 424/515
f 343/575 352/613 436/603 420/614
f 353/702 348/615 418/616 329/677
f 331/673 473/617 458/651 459/618
f 464/654 461/766 465/646 467/620
f 341/686 472/662 469/528 339/693
f 333/670 434/660 431/621 332/674
f 334/669 439/661 473/617 331/673
f 440/622 437/597 475/623 474/653
f 471/624 479/664 477/625 470/639
f 342/685 484/665 481/626 340/692
f 491/627 488/690 485/534 490/537
f 495/628 460/671 457/629 493/655
f 432/630 427/591 497/521 500/544
f 332/674 431/621 499/631 496/542
f 340/692 481/626 486/632 487/633
f 482/634 501/667 490/537 485/534
f 339/693 469/528 504/546 492/538
f 508/645 505/635 503/689 509/636
f 514/643 511/637 507/647 462/638
f 516/648 470/639 477/625 512/640
f 520/652 517/641 513/649 521/642
f 522/650 514/643 462/638 463/644
f 461/619 508/645 509/636 465/758
f 468/524 466/523 518/547 519/548
f 511/637 478/687 506/688 507/647
f 510/525 504/546 469/528 515/529
f 517/641 516/648 512/640 513/649
f 494/541 468/524 519/548 476/518
f 466/523 510/525 515/529 518/547
f 473/617 522/650 463/644 458/651
f 475/623 520/652 521/642 474/653
f 457/629 464/654 467/620 493/655
f 450/656 445/607 523/657 483/666
f 442/658 453/611 429/659 433/590
f 330/678 441/605 434/660 333/670
f 329/677 418/616 439/661 334/669
f 337/696 421/561 472/662 341/686
f 422/663 380/595 479/664 471/624
f 338/694 449/609 484/665 342/685
f 483/666 523/657 501/667 482/634
f 454/668 329/677 334/669 430/672
f 408/510 330/678 333/670 438/517
f 476/518 332/674 496/542 494/541
f 500/544 497/521 460/671 495/628
f 430/672 334/669 331/673 428/675
f 438/517 333/670 332/674 476/518
f 428/675 331/673 459/618 498/522
f 455/676 353/702 329/677 454/668
f 349/567 354/604 330/678 408/510
f 386/701 382/496 416/679 327/680
f 384/495 373/681 374/682 415/572
f 322/683 411/578 375/494 328/709
f 381/684 338/694 342/685 480/691
f 446/519 337/696 341/686 524/545
f 502/536 339/693 492/538 489/535
f 478/687 340/692 487/633 506/688
f 503/689 505/635 488/690 491/627
f 480/691 342/685 340/692 478/687
f 524/545 341/686 339/693 502/536
f 350/553 355/608 338/694 381/684
f 370/481 359/480 360/484 335/695
f 447/520 356/700 337/696 446/519
f 320/697 400/566 366/698 336/705
f 402/745 399/505 361/699 365/549
f 370/481 335/695 356/700 447/520
f 386/701 327/680 353/702 455/676
f 377/703 385/557 456/704 443/610
f 336/705 367/555 452/706 355/608
f 368/707 369/551 448/708 451/606
f 328/709 376/552 444/710 354/604
f 357/482 358/739 359/480
f 362/487 363/550 364/782
f 371/757 372/492 373/711
f 382/496 383/556 384/779
f 397/713 398/502 399/714
f 400/566 401/571 402/506
f 409/504 410/738 411/578
f 412/576 413/574 414/512
