%YAML 1.1
%TAG !u! tag:unity3d.com,2011:
--- !u!114 &11400000
MonoBehaviour:
  m_ObjectHideFlags: 0
  m_CorrespondingSourceObject: {fileID: 0}
  m_PrefabInstance: {fileID: 0}
  m_PrefabAsset: {fileID: 0}
  m_GameObject: {fileID: 0}
  m_Enabled: 1
  m_EditorHideFlags: 0
  m_Script: {fileID: 11500000, guid: d8b93c8f5965fca4a8d540a3b20912f7, type: 3}
  m_Name: rune2
  m_EditorClassIdentifier: 
  active: 1
  letter: R2
  meaning: Rune2
  description: Rune 2 Lorem ipsum dolor sit amet, consetetur sadipscing elitr, sed
    diam nonumy eirmod tempor invidunt ut labore et dolore magna aliquyam
  runeImg: {fileID: 21300000, guid: baec8aeb60ac8414e87fb1244bf0a615, type: 3}
  ScanImg: {fileID: 21300000, guid: baec8aeb60ac8414e87fb1244bf0a615, type: 3}
  audioExists: 0
  audio: {fileID: 0}
