%YAML 1.1
%TAG !u! tag:unity3d.com,2011:
--- !u!114 &11400000
MonoBehaviour:
  m_ObjectHideFlags: 0
  m_CorrespondingSourceObject: {fileID: 0}
  m_PrefabInstance: {fileID: 0}
  m_PrefabAsset: {fileID: 0}
  m_GameObject: {fileID: 0}
  m_Enabled: 1
  m_EditorHideFlags: 0
  m_Script: {fileID: 11500000, guid: ef10665206340ef4abef84478f51f06f, type: 3}
  m_Name: Nature Action BGM 2
  m_EditorClassIdentifier: 
  m_requirements: 1
  m_valuesMix: 0
  m_values:
  - m_name: Time of Day
    m_min: 0
    m_max: 0.6
    m_minFalloff: 0
    m_maxFalloff: 0
    m_invert: 0
  m_eventsMix: 0
  m_events:
  - Combat
  m_clipData:
  - m_clip: {fileID: 8300000, guid: 7bf976f6e84baed4ea26100fa3b78f31, type: 3}
    m_volume: 1
  - m_clip: {fileID: 8300000, guid: 8f5b35c5f998efa49b233fec531fb4e9, type: 3}
    m_volume: 1
  - m_clip: {fileID: 8300000, guid: be9ebee4e507fb7438bcc4cb04adf709, type: 3}
    m_volume: 1
  - m_clip: {fileID: 8300000, guid: 6d2062c0586be1e429bf7bf6c66ad2cf, type: 3}
    m_volume: 1
  m_clips: []
  m_volume: 1
  m_playbackSpeed: 1
  m_randomizeOrder: 1
  m_crossFade: 3
  m_trackFadeTime: 5
  m_volumeFadeTime: 1
  m_playbackSpeedFadeTime: 1
  m_delayChance: 100
  m_delayFadeTime: 0
  m_minMaxDelay: {x: 0, y: 0}
  m_randomVolume: 0
  m_minMaxVolume: {x: 0, y: 1}
  m_randomPlaybackSpeed: 0
  m_minMaxPlaybackSpeed: {x: 0, y: 1}
  m_modifiers: []
  m_outputType: 0
  m_outputPrefab: {fileID: 0}
  m_outputDirect: 0
  m_outputDistance: {x: 0, y: 0}
  m_outputVerticalAngle: {x: -180, y: 180}
  m_outputHorizontalAngle: {x: -180, y: 180}
  m_outputFollowPosition: 1
  m_outputFollowRotation: 0
  m_syncGroup: 
  m_syncType: 0
  m_eventsWhilePlaying: []
  m_valuesWhilePlaying: []
  m_OnPlayClip:
    m_PersistentCalls:
      m_Calls: []
  m_OnStopClip:
    m_PersistentCalls:
      m_Calls: []
