%YAML 1.1
%TAG !u! tag:unity3d.com,2011:
--- !u!114 &11400000
MonoBehaviour:
  m_ObjectHideFlags: 0
  m_CorrespondingSourceObject: {fileID: 0}
  m_PrefabInstance: {fileID: 0}
  m_PrefabAsset: {fileID: 0}
  m_GameObject: {fileID: 0}
  m_Enabled: 1
  m_EditorHideFlags: 0
  m_Script: {fileID: 11500000, guid: 35ac88ce2dfd9634692496c0da1bff09, type: 3}
  m_Name: Modifier Playback Speed x0.5 2
  m_EditorClassIdentifier: 
  m_requirements: 0
  m_valuesMix: 0
  m_values: []
  m_eventsMix: 0
  m_events: []
  m_modVolume: 0
  m_volume: 1
  m_modPlaybackSpeed: 1
  m_playbackSpeed: 0.5
  m_modRandomizePlaybackSpeed: 0
  m_randomizePlaybackSpeed: 0
  m_modMinMaxPlaybackSpeed: 0
  m_minMaxPlaybackSpeed: {x: 0, y: 1}
  m_modClips: 0
  m_modClipsType: 0
  m_clipData: []
  m_clips: []
  m_modDelayChance: 0
  m_delayChance: 100
  m_modDelay: 0
  m_minMaxDelay: {x: 0, y: 0}
  m_modRandomizeVolume: 0
  m_randomizeVolume: 0
  m_modMinMaxVolume: 0
  m_minMaxVolume: {x: 0, y: 1}
