%YAML 1.1
%TAG !u! tag:unity3d.com,2011:
--- !u!114 &11400000
MonoBehaviour:
  m_ObjectHideFlags: 0
  m_CorrespondingSourceObject: {fileID: 0}
  m_PrefabInstance: {fileID: 0}
  m_PrefabAsset: {fileID: 0}
  m_GameObject: {fileID: 0}
  m_Enabled: 1
  m_EditorHideFlags: 0
  m_Script: {fileID: 11500000, guid: d8b93c8f5965fca4a8d540a3b20912f7, type: 3}
  m_Name: e
  m_EditorClassIdentifier: 
  active: 0
  letter: E
  meaning: The letter E
  description: The PEA tansalting programm has decoded this audio sequence to be
    the letter E in the Latin-script alphabet
  runeImg: {fileID: 21300000, guid: b828f0fedab320d478cebca76fd0d637, type: 3}
  ScanImg: {fileID: 21300000, guid: b828f0fedab320d478cebca76fd0d637, type: 3}
  audioExists: 1
  audio: {fileID: 8300000, guid: b743433c2c74d4ef3b8049e882ea34f5, type: 3}
