%YAML 1.1
%TAG !u! tag:unity3d.com,2011:
--- !u!21 &2100000
Material:
  serializedVersion: 6
  m_ObjectHideFlags: 0
  m_CorrespondingSourceObject: {fileID: 0}
  m_PrefabInstance: {fileID: 0}
  m_PrefabAsset: {fileID: 0}
  m_Name: Volume Fog 2
  m_Shader: {fileID: -6465566751694194690, guid: 670944325775cf74aaf1a0c87bec63e2, type: 3}
  m_ShaderKeywords: 
  m_LightmapFlags: 4
  m_EnableInstancingVariants: 1
  m_DoubleSidedGI: 0
  m_CustomRenderQueue: 3000
  stringTagMap: {}
  disabledShaderPasses: []
  m_SavedProperties:
    serializedVersion: 3
    m_TexEnvs:
    - Texture2DArray_9C57B744:
        m_Texture: {fileID: 0}
        m_Scale: {x: 1, y: 1}
        m_Offset: {x: 0, y: 0}
    - _Noise:
        m_Texture: {fileID: 11700000, guid: 30f8e26307d135449aae67c8f450264a, type: 2}
        m_Scale: {x: 1, y: 1}
        m_Offset: {x: 0, y: 0}
    m_Floats:
    - Vector1_4EEA1A9E: 0.01
    - Vector1_5437168: 0
    - Vector1_5E73A52C: 50
    - Vector1_6098A7A7: 0.5
    - Vector1_6DD21BAC: 2
    - Vector1_6F1EA0F8: 100
    - Vector1_7E9E1A0E: 0
    - Vector1_8973C2DC: -0.1
    - Vector1_952E6200: 0
    - Vector1_AF6ECEBD: 0.5
    - Vector1_DCC47F9A: 1
    m_Colors: []
  m_BuildTextureStacks: []
