%YAML 1.1
%TAG !u! tag:unity3d.com,2011:
--- !u!21 &2100000
Material:
  serializedVersion: 6
  m_ObjectHideFlags: 0
  m_CorrespondingSourceObject: {fileID: 0}
  m_PrefabInstance: {fileID: 0}
  m_PrefabAsset: {fileID: 0}
  m_Name: Volume Fog from Texture 2
  m_Shader: {fileID: -6465566751694194690, guid: 670944325775cf74aaf1a0c87bec63e2, type: 3}
  m_ShaderKeywords: 
  m_LightmapFlags: 4
  m_EnableInstancingVariants: 1
  m_DoubleSidedGI: 0
  m_CustomRenderQueue: -1
  stringTagMap: {}
  disabledShaderPasses: []
  m_SavedProperties:
    serializedVersion: 3
    m_TexEnvs:
    - _Noise:
        m_Texture: {fileID: 11700000, guid: a81735f88cd3a4b45ac8284df4b66b3d, type: 2}
        m_Scale: {x: 1, y: 1}
        m_Offset: {x: 0, y: 0}
    m_Floats:
    - Vector1_4EEA1A9E: 0.08
    - Vector1_5E73A52C: 10
    - Vector1_6098A7A7: 0.8
    - Vector1_6DD21BAC: 5.7
    - Vector1_6F1EA0F8: 100
    - Vector1_7E9E1A0E: 3.54
    - Vector1_952E6200: 1.02
    - Vector1_AF6ECEBD: 0.8
    m_Colors: []
  m_BuildTextureStacks: []
